{
   "Subject": {
       "Data": "The LUG meeting ... starts in 1 hour!",
       "Charset": "UTF-8"
   },
   "Body": {
       "Text": {
           "Data": <REPLACEME_TXT>,
           "Charset": "UTF-8"
       },
       "Html": {
           "Data": <REPLACEME_HTML>,
           "Charset": "UTF-8"
       }
   }
}
